<?xml version="1.0" encoding="UTF-8"?>
<model ref="r:70c52a4d-7b18-47bb-b3c0-29cde6fb7142(jetbrains.mps.samples.grammarLanguage.constraints)">
  <persistence version="9" />
  <languages>
    <use id="3f4bc5f5-c6c1-4a28-8b10-c83066ffa4a1" name="jetbrains.mps.lang.constraints" version="5" />
    <devkit ref="00000000-0000-4000-0000-5604ebd4f22c(jetbrains.mps.devkit.aspect.constraints)" />
  </languages>
  <imports>
    <import index="c8s6" ref="r:08f8613a-9ff2-487d-bf55-5ceca2c577dd(jetbrains.mps.samples.grammarLanguage.structure)" implicit="true" />
  </imports>
  <registry>
    <language id="3f4bc5f5-c6c1-4a28-8b10-c83066ffa4a1" name="jetbrains.mps.lang.constraints">
      <concept id="8401916545537438642" name="jetbrains.mps.lang.constraints.structure.InheritedNodeScopeFactory" flags="ng" index="1dDu$B">
        <reference id="8401916545537438643" name="kind" index="1dDu$A" />
      </concept>
      <concept id="1213093968558" name="jetbrains.mps.lang.constraints.structure.ConceptConstraints" flags="ng" index="1M2fIO">
        <reference id="1213093996982" name="concept" index="1M2myG" />
        <reference id="1213106917431" name="defaultConcreteConcept" index="1MND4H" />
        <child id="1213100494875" name="referent" index="1Mr941" />
      </concept>
      <concept id="1148687176410" name="jetbrains.mps.lang.constraints.structure.NodeReferentConstraint" flags="ng" index="1N5Pfh">
        <reference id="1148687202698" name="applicableLink" index="1N5Vy1" />
        <child id="1148687345559" name="searchScopeFactory" index="1N6uqs" />
      </concept>
    </language>
    <language id="ceab5195-25ea-4f22-9b92-103b95ca8c0c" name="jetbrains.mps.lang.core">
      <concept id="1133920641626" name="jetbrains.mps.lang.core.structure.BaseConcept" flags="ng" index="2VYdi">
        <property id="1193676396447" name="virtualPackage" index="3GE5qa" />
      </concept>
    </language>
  </registry>
  <node concept="1M2fIO" id="4vv0wgOgxBg">
    <ref role="1M2myG" to="c8s6:4vv0wgO7VEI" resolve="SymbolDeclaration" />
  </node>
  <node concept="1M2fIO" id="4vv0wgOgxBL">
    <ref role="1M2myG" to="c8s6:4vv0wgO7Caf" resolve="NonterminalReference" />
    <node concept="1N5Pfh" id="4vv0wgOgxBM" role="1Mr941">
      <ref role="1N5Vy1" to="c8s6:4vv0wgO7Cag" resolve="declaration" />
      <node concept="1dDu$B" id="4vv0wgOgxBQ" role="1N6uqs">
        <ref role="1dDu$A" to="c8s6:4vv0wgO7Ca9" resolve="NonterminalDeclaration" />
      </node>
    </node>
  </node>
  <node concept="1M2fIO" id="4vv0wgOgPDm">
    <ref role="1M2myG" to="c8s6:4vv0wgO7Cac" resolve="TerminalReference" />
    <node concept="1N5Pfh" id="4vv0wgOgTue" role="1Mr941">
      <ref role="1N5Vy1" to="c8s6:4vv0wgO7Cad" resolve="declaration" />
      <node concept="1dDu$B" id="4vv0wgOgTui" role="1N6uqs">
        <ref role="1dDu$A" to="c8s6:4vv0wgO7Ca8" resolve="TerminalDeclaration" />
      </node>
    </node>
  </node>
  <node concept="1M2fIO" id="3v$U6ONMIQx">
    <property role="3GE5qa" value="LL1" />
    <ref role="1M2myG" to="c8s6:4vv0wgOnpJd" resolve="RuleReference" />
    <node concept="1N5Pfh" id="3v$U6ONMIQy" role="1Mr941">
      <ref role="1N5Vy1" to="c8s6:4vv0wgOnpJe" resolve="declaration" />
      <node concept="1dDu$B" id="3v$U6ONMIQ$" role="1N6uqs">
        <ref role="1dDu$A" to="c8s6:4vv0wgO7Ca7" resolve="GrammarRule" />
      </node>
    </node>
  </node>
  <node concept="1M2fIO" id="7DEtAv3p9fd">
    <property role="3GE5qa" value="transform" />
    <ref role="1M2myG" to="c8s6:7DEtAv3oLdr" resolve="TransformPatternRule" />
    <node concept="1N5Pfh" id="7DEtAv3p9fe" role="1Mr941">
      <ref role="1N5Vy1" to="c8s6:7DEtAv3oLdy" resolve="rule" />
      <node concept="1dDu$B" id="7DEtAv3p9fi" role="1N6uqs">
        <ref role="1dDu$A" to="c8s6:4vv0wgO7Ca7" resolve="GrammarRule" />
      </node>
    </node>
  </node>
  <node concept="1M2fIO" id="7DEtAv3qg1X">
    <property role="3GE5qa" value="transform" />
    <ref role="1M2myG" to="c8s6:7DEtAv3oLdE" resolve="AbstractTransformPattern" />
    <ref role="1MND4H" to="c8s6:7DEtAv3oLdB" resolve="TransformPatternAny" />
  </node>
</model>

